[gd_scene load_steps=4 format=2]

[ext_resource path="res://Assets/enemy_laser.png" type="Texture" id=1]
[ext_resource path="res://Mobs/Guns/Scripts/Bullet_enemy.gd" type="Script" id=2]

[sub_resource type="RectangleShape2D" id=1]

[node name="Bullet_enemy" type="Area2D" groups=[
"enemy_bullet",
]]
z_index = 1
script = ExtResource( 2 )

[node name="Sprite" type="Sprite" parent="."]
scale = Vector2( 0.5, 0.5 )
texture = ExtResource( 1 )

[node name="CollisionShape2D" type="CollisionShape2D" parent="."]
rotation = 0.785398
scale = Vector2( 0.5, 0.5 )
shape = SubResource( 1 )

[node name="VisibilityNotifier2D" type="VisibilityNotifier2D" parent="."]
[connection signal="area_entered" from="." to="." method="_on_Bullet_enemy_area_entered"]
[connection signal="screen_exited" from="VisibilityNotifier2D" to="." method="_on_VisibilityNotifier2D_screen_exited"]
