[gd_scene load_steps=7 format=2]

[ext_resource path="res://Scenes/Boss.tscn" type="PackedScene" id=1]
[ext_resource path="res://Scenes/BossHealthBar.tscn" type="PackedScene" id=2]
[ext_resource path="res://Scripts/BossScene.gd" type="Script" id=3]
[ext_resource path="res://Scripts/Phase3Path.gd" type="Script" id=4]
[ext_resource path="res://Scripts/Phase4Path.gd" type="Script" id=5]

[sub_resource type="Curve2D" id=1]
_data = {
"points": PoolVector2Array( 0, 0, 0, 0, 0.95575, -0.571446, 0, 0, 0, 0, 0.95575, 195.672, 0, 0, 0, 0, -165.592, 196.98, 0, 0, 0, 0, 180.165, 195.674, 0, 0, 0, 0, 0.521393, 193.931, 0, 0, 0, 0, 0.95575, -0.571446 )
}

[node name="BossScene" type="Node2D"]
script = ExtResource( 3 )

[node name="HealthBossBarControl" parent="." instance=ExtResource( 2 )]
visible = false
margin_left = 73.9285
margin_top = 38.9385
margin_right = 73.9285
margin_bottom = 38.9385

[node name="Boss" parent="." instance=ExtResource( 1 )]
position = Vector2( 0, -0.569458 )

[node name="Phase3Path" type="Path2D" parent="."]
scale = Vector2( 1, 0.998252 )
curve = SubResource( 1 )
script = ExtResource( 4 )

[node name="PathFollowP3" type="PathFollow2D" parent="Phase3Path"]
position = Vector2( 0.95575, -0.571446 )
rotate = false

[node name="Phase4Path" type="Path2D" parent="."]
visible = false
position = Vector2( -91.2173, -45.1743 )
curve = SubResource( 1 )
script = ExtResource( 5 )

[node name="PathFollowP4" type="PathFollow2D" parent="Phase4Path"]
position = Vector2( 0.95575, -0.571446 )
rotate = false
