[gd_scene load_steps=5 format=2]

[ext_resource path="res://Scripts/LastBossHealthBar.gd" type="Script" id=1]
[ext_resource path="res://Assets/Xolonium-Regular.ttf" type="DynamicFontData" id=2]

[sub_resource type="StyleBoxFlat" id=1]
bg_color = Color( 1, 0.0470588, 0, 1 )

[sub_resource type="DynamicFont" id=2]
font_data = ExtResource( 2 )

[node name="LastBossHealthBar" type="Node2D"]
script = ExtResource( 1 )

[node name="ProgressBar" type="ProgressBar" parent="."]
anchor_left = -2.473
anchor_right = 4.277
anchor_bottom = 0.397
margin_left = -145.0
margin_top = -9.68161
margin_right = 197.0
margin_bottom = 10.3184
custom_styles/fg = SubResource( 1 )
custom_fonts/font = SubResource( 2 )
custom_colors/font_color = Color( 1, 1, 1, 1 )
value = 100.0
rounded = true
__meta__ = {
"_edit_use_anchors_": false
}
