[gd_scene load_steps=7 format=2]

[ext_resource path="res://Mobs/Guns/Scenes/Primer.tscn" type="PackedScene" id=1]
[ext_resource path="res://Mobs/Movements_and_Mobs/Scenes/Line.tscn" type="PackedScene" id=2]
[ext_resource path="res://Mobs/Guns/Scenes/Nozzle.tscn" type="PackedScene" id=3]
[ext_resource path="res://Mobs/Movements_and_Mobs/Scenes/Mob.tscn" type="PackedScene" id=4]
[ext_resource path="res://Mobs/Guns/Scenes/Bullet_enemy.tscn" type="PackedScene" id=5]
[ext_resource path="res://Mobs/Guns/Scenes/Gradual_rotation.tscn" type="PackedScene" id=6]

[node name="Mob_type_LSR" instance=ExtResource( 2 )]
enemy = NodePath("PathFollow2D/Mob")

[node name="Mob" parent="PathFollow2D" index="0" instance=ExtResource( 4 )]
enemy_type = "Enemy 2"
live = 8
extention = NodePath("Gradual_rotation")

[node name="Gradual_rotation" parent="PathFollow2D/Mob" index="2" instance=ExtResource( 6 )]
extention = NodePath("Primer")
start_direction = 8.0
rotation_speed = -20.0

[node name="Primer" parent="PathFollow2D/Mob/Gradual_rotation" index="0" instance=ExtResource( 1 )]
extention = NodePath("Nozzle")
stream = 8
wait = 0.001

[node name="Nozzle" parent="PathFollow2D/Mob/Gradual_rotation/Primer" index="0" instance=ExtResource( 3 )]
bullet_enemy = ExtResource( 5 )

[node name="Timer" parent="." index="1"]
wait_time = 1.125
