[gd_scene load_steps=4 format=2]

[ext_resource path="res://Mobs/Movements_and_Mobs/Scripts/Line.gd" type="Script" id=1]
[ext_resource path="res://Mobs/Movements_and_Mobs/Scenes/Mob_movement.tscn" type="PackedScene" id=2]

[sub_resource type="Curve2D" id=1]
_data = {
"points": PoolVector2Array( 0, 0, 0, 0, 0, 0, -142.371, -75.5953, 142.371, 75.5953, 128, 192, 0, 0, 0, 0, 640, 256 )
}

[node name="Line" instance=ExtResource( 2 )]
curve = SubResource( 1 )
script = ExtResource( 1 )

[node name="Timer" type="Timer" parent="." index="1"]
wait_time = 2.0
[connection signal="timeout" from="Timer" to="." method="_on_Timer_timeout"]
