[gd_scene load_steps=5 format=2]

[ext_resource path="res://Mobs/Bullet2.gd" type="Script" id=1]
[ext_resource path="res://Scenes/Flare.tscn" type="PackedScene" id=2]
[ext_resource path="res://Assets/player_laser.png" type="Texture" id=3]

[sub_resource type="CircleShape2D" id=1]

[node name="Bullet2" type="Area2D" groups=[
"player_bullet",
]]
script = ExtResource( 1 )
Flare = ExtResource( 2 )

[node name="Sprite" type="Sprite" parent="."]
scale = Vector2( 0.5, 0.5 )
texture = ExtResource( 3 )

[node name="CollisionShape2D" type="CollisionShape2D" parent="."]
scale = Vector2( 0.5, 1 )
shape = SubResource( 1 )

[node name="VisibilityNotifier2D" type="VisibilityNotifier2D" parent="."]
[connection signal="area_entered" from="." to="." method="_on_Bullet_area_entered"]
[connection signal="screen_exited" from="VisibilityNotifier2D" to="." method="_on_VisibilityNotifier2D_screen_exited"]
