[gd_scene load_steps=8 format=2]

[ext_resource path="res://Mobs/Types/Scenes/Pattern_LS_alt2.tscn" type="PackedScene" id=1]
[ext_resource path="res://Mobs/Types/Scenes/Group.tscn" type="PackedScene" id=2]
[ext_resource path="res://Mobs/Types/Scenes/Pattern_SPR_alt.tscn" type="PackedScene" id=3]
[ext_resource path="res://Mobs/Types/Scenes/Pattern_LS_alt.tscn" type="PackedScene" id=4]
[ext_resource path="res://Mobs/Types/Scenes/Pattern_FSG.tscn" type="PackedScene" id=5]
[ext_resource path="res://Mobs/Types/Scenes/Pattern_FP_alt.tscn" type="PackedScene" id=6]
[ext_resource path="res://Mobs/Wave/Scripts/Wave_3.gd" type="Script" id=7]

[node name="Wave_3" instance=ExtResource( 2 )]
script = ExtResource( 7 )
spawns = [ NodePath("Pattern_LS_alt2"), NodePath("Pattern_FP_alt"), NodePath("Pattern_LS_alt"), NodePath("Pattern_SPR_alt"), NodePath("Pattern_FSG") ]
timestamp = [ 0.0, 13.0, 34.0, 46.0, 68.0, 80.0 ]
repeat = 1

[node name="Pattern_LS_alt2" parent="." index="0" instance=ExtResource( 1 )]

[node name="Pattern_FP_alt" parent="." index="1" instance=ExtResource( 6 )]

[node name="Pattern_LS_alt" parent="." index="2" instance=ExtResource( 4 )]

[node name="Pattern_SPR_alt" parent="." index="3" instance=ExtResource( 3 )]

[node name="Pattern_FSG" parent="." index="4" instance=ExtResource( 5 )]

[node name="Timer" type="Timer" parent="." index="5"]
wait_time = 0.25
[connection signal="timeout" from="Timer" to="." method="_on_Timer_timeout"]
